<svg xmlns="http://www.w3.org/2000/svg" viewBox="0 0 16 15" width="16" height="15">
	<style>
		tspan { white-space:pre }
		.shp0 { fill: #dfdfaf } 
	</style>
	<path id="luup " class="shp0" d="M2.75,1.76c2.34,-2.34 6.14,-2.34 8.49,0c2.1,2.1 2.32,5.38 0.64,7.73l0.82,0.82l0.31,-0.31l3,3c0,2 -2,2 -2,2l-3,-3l0.28,-0.28l-0.82,-0.82c-2.34,1.66 -5.61,1.44 -7.71,-0.65c-2.34,-2.34 -2.34,-6.14 0,-8.49zM4.17,8.87c1.48,1.48 3.84,1.56 5.42,0.22l0.46,-0.46c1.34,-1.57 1.26,-3.93 -0.22,-5.42c-1.56,-1.56 -4.09,-1.56 -5.66,0c-1.56,1.56 -1.56,4.09 0,5.66z" />
</svg>